{
    [
        "auction_name": "Test",
        "items": [
            {
                "user_email": "s1@gmail.com",
                "weight": 10,
                "search_term": "Test1",
                "bid_amount": 200
            },
            {
                "user_email": "s2@gmail.com",
                "weight": 15,
                "search_term": "Test1",
                "bid_amount": 201
            }
        ]
    ]
}